<svg width="20" height="20" viewBox="0 0 20 20" fill="none" xmlns="http://www.w3.org/2000/svg">
<mask id="mask0_4266_186279" style="mask-type:alpha" maskUnits="userSpaceOnUse" x="0" y="0" width="20" height="20">
<path fill-rule="evenodd" clip-rule="evenodd" d="M20 10C20 15.5228 15.5228 20 10 20C4.47715 20 0 15.5228 0 10C0 4.47715 4.47715 0 10 0C15.5228 0 20 4.47715 20 10ZM10.7116 5.625C10.7116 5.07272 10.2639 4.625 9.71163 4.625C9.15934 4.625 8.71163 5.07272 8.71163 5.625V11.125C8.71163 11.7463 9.21531 12.25 9.83663 12.25H14.0866C14.6389 12.25 15.0866 11.8023 15.0866 11.25C15.0866 10.6977 14.6389 10.25 14.0866 10.25H10.7116V5.625Z" fill="#6B7B8B"/>
</mask>
<g mask="url(#mask0_4266_186279)">
<rect width="20" height="20" fill="#0B8E87"/>
</g>
</svg>
