<svg width="20" height="21" viewBox="0 0 20 21" fill="none" xmlns="http://www.w3.org/2000/svg">
<mask id="mask0_4094_56431" style="mask-type:alpha" maskUnits="userSpaceOnUse" x="8" y="2" width="4" height="16">
<path d="M9.9987 5.8348C10.9192 5.8348 11.6654 5.08861 11.6654 4.16813C11.6654 3.24766 10.9192 2.50146 9.9987 2.50146C9.07822 2.50146 8.33203 3.24766 8.33203 4.16813C8.33203 5.08861 9.07822 5.8348 9.9987 5.8348Z" fill="#19191A"/>
<path d="M9.9987 11.6681C10.9192 11.6681 11.6654 10.9219 11.6654 10.0015C11.6654 9.08099 10.9192 8.3348 9.9987 8.3348C9.07822 8.3348 8.33203 9.08099 8.33203 10.0015C8.33203 10.9219 9.07822 11.6681 9.9987 11.6681Z" fill="#19191A"/>
<path d="M11.6654 15.8348C11.6654 16.7553 10.9192 17.5015 9.9987 17.5015C9.07822 17.5015 8.33203 16.7553 8.33203 15.8348C8.33203 14.9143 9.07822 14.1681 9.9987 14.1681C10.9192 14.1681 11.6654 14.9143 11.6654 15.8348Z" fill="#19191A"/>
</mask>
<g mask="url(#mask0_4094_56431)">
<rect y="0.00146484" width="20" height="20" fill="#19191A"/>
</g>
</svg>
